<?xml version="1.0" standalone="no"?>
<!DOCTYPE svg PUBLIC "-//W3C//DTD SVG 1.1//EN" "http://www.w3.org/Graphics/SVG/1.1/DTD/svg11.dtd" >
<svg xmlns="http://www.w3.org/2000/svg">
<metadata></metadata>
<defs>
<font id="myriad_web_proregular" horiz-adv-x="1087" >
<font-face units-per-em="2048" ascent="1556" descent="-492" />
<missing-glyph horiz-adv-x="446" />
<glyph horiz-adv-x="2048" />
<glyph horiz-adv-x="2048" />
<glyph unicode="&#xd;" horiz-adv-x="446" />
<glyph unicode=" "  horiz-adv-x="446" />
<glyph unicode="&#x09;" horiz-adv-x="446" />
<glyph unicode="&#xa0;" horiz-adv-x="446" />
<glyph unicode="!" horiz-adv-x="483" d="M115 111q0 58 35.5 95.5t91.5 37.5t91.5 -37.5t35.5 -95.5q0 -56 -35 -95t-92 -39q-55 0 -91 38.5t-36 95.5zM137 1380h207l-31 -979h-145z" />
<glyph unicode="&#x22;" horiz-adv-x="706" d="M100 1419h191l-37 -497h-117zM416 1419h190l-37 -497h-116z" />
<glyph unicode="#" horiz-adv-x="1052" d="M80 399v127h192l39 289h-180v127h199l53 389h127l-53 -389h219l51 389h127l-51 -389h172v-127h-191l-36 -289h178v-127h-199l-53 -399h-129l53 399h-217l-51 -399h-129l53 399h-174zM401 526h217l37 289h-217z" />
<glyph unicode="$" d="M135 121l53 147q140 -92 308 -92q109 0 177 55t68 140q0 77 -54 132t-181 103q-195 75 -273.5 159t-78.5 202q0 126 85 217.5t236 115.5v205h135v-198q154 -5 275 -74l-51 -143q-130 74 -273 73q-103 0 -160 -49t-57 -123q0 -72 55 -121.5t203 -107.5q179 -71 254.5 -158 t75.5 -217q0 -128 -88 -227t-248 -125v-211h-135v205q-197 5 -326 92z" />
<glyph unicode="%" horiz-adv-x="1669" d="M61 936q0 190 94.5 304t239.5 114q147 0 233.5 -105t86.5 -291q0 -201 -95.5 -311t-236.5 -110q-139 0 -230.5 107.5t-91.5 291.5zM215 944q0 -131 46.5 -213t129.5 -82q84 0 129 78.5t45 220.5q0 139 -45 216t-129 77q-80 0 -128 -82t-48 -215zM379 -23l788 1377h119 l-788 -1377h-119zM954 387q0 188 94.5 302t239.5 114q147 0 233.5 -105t86.5 -290q0 -201 -95.5 -311.5t-236.5 -110.5q-140 0 -231 107.5t-91 293.5zM1108 393q0 -134 47.5 -214.5t128.5 -80.5q84 0 129 78.5t45 220.5q0 132 -42.5 212.5t-131.5 80.5q-80 0 -128 -81.5 t-48 -215.5z" />
<glyph unicode="&#x26;" horiz-adv-x="1275" d="M63 365q0 256 279 409q-119 147 -119 285q0 136 98.5 240t266.5 104q138 0 227.5 -83t89.5 -214q0 -116 -76 -204t-233 -169q287 -321 338 -375q95 137 137 400h174q-59 -347 -207 -512l236 -246h-227l-132 133q-175 -156 -413 -156q-196 0 -317.5 112t-121.5 276z M248 395q0 -119 81 -196.5t206 -77.5q168 0 286 121q-161 167 -393 428q-180 -112 -180 -275zM401 1077q1 -117 107 -243q126 69 178.5 129t52.5 135q0 74 -43.5 125t-117.5 51q-80 0 -128.5 -56.5t-48.5 -140.5z" />
<glyph unicode="'" horiz-adv-x="391" d="M100 1419h191l-37 -497h-117z" />
<glyph unicode="(" horiz-adv-x="593" d="M133 586q0 481 270 837h148q-258 -348 -258 -839q0 -466 258 -830h-148q-270 349 -270 832z" />
<glyph unicode=")" horiz-adv-x="593" d="M43 -246q258 358 258 836t-258 833h147q270 -349 271 -833q0 -479 -271 -836h-147z" />
<glyph unicode="*" horiz-adv-x="866" d="M63 969v143l306 -37l-195 254l131 74l129 -289l127 289l127 -72l-199 -260l316 41v-143l-316 32l201 -247l-133 -76l-129 291l-133 -293l-121 78l199 254z" />
<glyph unicode="+" horiz-adv-x="1220" d="M84 483v129h459v480h137v-480h459v-129h-459v-483h-137v483h-459z" />
<glyph unicode="," horiz-adv-x="434" d="M31 -252q84 234 125 498l211 20q-89 -313 -201 -504z" />
<glyph unicode="-" horiz-adv-x="636" d="M61 485v140h514v-140h-514z" />
<glyph unicode="." horiz-adv-x="434" d="M106 111q0 58 36.5 96.5t93.5 38.5q56 0 91 -37.5t35 -97.5q0 -57 -36 -95.5t-93 -38.5q-55 0 -91 38.5t-36 95.5z" />
<glyph unicode="/" horiz-adv-x="716" d="M0 -82l575 1485h148l-580 -1485h-143z" />
<glyph unicode="0" d="M76 662q0 323 131 507.5t348 184.5q216 0 336.5 -177.5t120.5 -496.5q0 -337 -125 -520t-352 -183q-209 0 -334 182.5t-125 502.5zM266 672q0 -257 74 -402t199 -145q135 0 206.5 141t71.5 406q0 253 -68.5 393.5t-205.5 140.5q-125 0 -201 -143.5t-76 -390.5z" />
<glyph unicode="1" d="M221 1176l297 155h162v-1331h-184v1155h-4l-234 -123z" />
<glyph unicode="2" d="M94 0v117q462 419 559 558t97 263q0 122 -69 190t-200 68q-147 0 -293 -117l-61 133q169 141 393 142q197 0 308.5 -112t111.5 -279q0 -150 -95.5 -308.5t-477.5 -496.5h606v-158h-879z" />
<glyph unicode="3" d="M90 72l49 145q148 -86 310 -86q147 0 226 72.5t79 179.5q0 122 -97.5 191t-248.5 69h-111v143h111q121 0 210 59t89 159q0 89 -62 142.5t-176 53.5q-142 0 -279 -90l-51 137q157 106 367 107q185 0 290 -90t105 -230q0 -221 -252 -317q138 -27 220.5 -120.5t82.5 -219.5 q0 -173 -135.5 -286.5t-365.5 -113.5q-215 1 -361 95z" />
<glyph unicode="4" d="M33 360v125l604 846h213v-823h188v-148h-188v-360h-182v360h-635zM225 512l443 -4v442v207q-78 -148 -106 -186z" />
<glyph unicode="5" d="M90 61l47 146q139 -76 299 -76q134 0 226 79.5t92 203.5q0 140 -100 216.5t-292 76.5q-102 0 -194 -15l88 639h659v-160h-524l-49 -325q61 8 115 8q222 0 356.5 -113t134.5 -309q0 -195 -144.5 -325t-365.5 -130q-204 0 -348 84z" />
<glyph unicode="6" d="M70 547q0 268 122 463.5t312 268.5t375 73l2 -156q-271 0 -428 -130t-181 -339q121 154 330 154q184 0 300 -120t116 -312q0 -196 -129 -334t-332 -138q-220 0 -353.5 155.5t-133.5 414.5zM260 496q0 -162 79 -267.5t220 -105.5q118 0 191 87.5t73 225.5t-75.5 219.5 t-202.5 81.5q-106 0 -195.5 -74t-89.5 -167z" />
<glyph unicode="7" d="M121 1174v157h868v-127l-594 -1204h-198l591 1174h-667z" />
<glyph unicode="8" d="M78 340q0 241 266 352q-215 103 -215 303q0 155 121.5 257t304.5 102q185 0 294 -95.5t109 -234.5q0 -208 -221 -315q132 -49 202.5 -137.5t70.5 -202.5q0 -171 -133.5 -281.5t-335.5 -110.5q-207 0 -335 104t-128 259zM276 357q0 -100 75 -170t194 -70q122 0 197 65 t75 166q0 47 -13 86.5t-41 71.5t-69 57t-102 46.5t-78.5 21.5t-68.5 -25.5t-80.5 -51.5t-49 -57t-29.5 -66t-10 -74zM315 1008q0 -177 258 -240q205 66 205 236q0 87 -56.5 150t-170.5 63q-108 0 -172 -59.5t-64 -149.5z" />
<glyph unicode="9" d="M84 879q0 195 133 335t340 140q209 0 333 -153t124 -413q0 -357 -195 -582.5t-616 -225.5v155q19 -2 42 -2q237 0 386 126t182 353q-119 -143 -324 -143q-179 0 -292 116.5t-113 293.5zM274 889q0 -122 72.5 -199.5t190.5 -77.5q113 0 197.5 63t84.5 140q0 183 -72.5 288 t-205.5 105q-116 0 -191.5 -90.5t-75.5 -228.5z" />
<glyph unicode=":" horiz-adv-x="434" d="M106 111q0 58 36 96.5t91 38.5q56 0 91.5 -37.5t35.5 -97.5q0 -56 -35.5 -95t-91.5 -39q-55 0 -91 38.5t-36 95.5zM109 825q0 58 35.5 97t91.5 39t91 -38t35 -98q0 -56 -35.5 -94.5t-90.5 -38.5t-91 38.5t-36 94.5z" />
<glyph unicode=";" horiz-adv-x="434" d="M33 -252q83 231 125 498l209 20q-91 -317 -201 -504zM123 825q0 58 36 97t91 39q56 0 91.5 -38t35.5 -98q0 -56 -36 -94.5t-91 -38.5t-91 38.5t-36 94.5z" />
<glyph unicode="&#x3c;" horiz-adv-x="1220" d="M133 485v119l952 486v-148l-796 -399l796 -396v-147z" />
<glyph unicode="=" horiz-adv-x="1220" d="M82 283v129h1057v-129h-1057zM82 690v129h1057v-129h-1057z" />
<glyph unicode="&#x3e;" horiz-adv-x="1220" d="M133 0v147l803 400l-803 395v148l954 -484v-123z" />
<glyph unicode="?" horiz-adv-x="860" d="M104 1317q130 86 308 86q166 0 260 -86t94 -219q0 -72 -33 -147t-147 -203q-68 -78 -94.5 -145t-26.5 -152l2 -54h-170q-5 71 -5 86q0 167 132 318q87 102 116 160.5t29 111.5q0 82 -51 128t-145 46q-126 0 -215 -65zM252 111q0 58 36.5 95.5t92.5 37.5t91.5 -37.5 t35.5 -95.5q0 -57 -36.5 -95.5t-92.5 -38.5q-55 0 -91 38.5t-36 95.5z" />
<glyph unicode="@" horiz-adv-x="1550" d="M90 625q0 327 214.5 552.5t547.5 225.5q271 0 443.5 -169.5t172.5 -432.5q0 -215 -109 -345t-261 -130q-69 0 -113.5 44t-50.5 136q-111 -180 -297 -180q-96 0 -161.5 72.5t-65.5 189.5q0 197 141 339t348 142q129 0 229 -45q-70 -377 -74.5 -407.5t-4.5 -69.5 q0 -117 80 -117q84 0 151.5 101t67.5 260q0 232 -138.5 373t-373.5 141q-264 0 -443.5 -186.5t-179.5 -481.5q0 -253 152 -406t387 -153q182 0 315 74l33 -95q-157 -80 -371 -80q-269 0 -454 182t-185 466zM551 598q0 -72 37 -115t102 -43q84 0 158.5 88t93.5 191l41 219 q-45 16 -104 16q-135 0 -231.5 -105t-96.5 -251z" />
<glyph unicode="A" horiz-adv-x="1302" d="M51 0l484 1380h233l487 -1380h-204l-152 430h-504l-145 -430h-199zM434 578h426q-185 520 -217 641q-45 -171 -209 -641z" />
<glyph unicode="B" horiz-adv-x="1148" d="M158 4v1358q142 31 342 31q264 0 387 -96t123 -250q0 -99 -62 -181.5t-174 -126.5q131 -33 210 -124.5t79 -221.5q0 -175 -142 -290t-475 -115q-121 0 -288 16zM348 143q48 -8 156 -8q169 0 263.5 67t94.5 195q0 125 -96.5 192.5t-263.5 67.5h-154v-514zM348 799h168 q139 0 220 63t81 164q0 221 -303 221q-109 0 -166 -12v-436z" />
<glyph unicode="C" horiz-adv-x="1239" d="M76 678q0 318 206.5 521.5t542.5 203.5q212 0 346 -64l-45 -153q-132 59 -292 59q-257 0 -407.5 -151t-150.5 -412q0 -248 144.5 -396.5t402.5 -148.5q181 1 307 60l37 -150q-140 -70 -383 -70q-318 0 -513 189t-195 512z" />
<glyph unicode="D" horiz-adv-x="1421" d="M158 4v1358q193 31 401 31q404 0 595.5 -183t191.5 -485q0 -339 -210 -538t-634 -199q-193 0 -344 16zM348 147q42 -8 189 -8q293 0 450.5 150.5t157.5 427.5q0 254 -148.5 390t-429.5 136q-130 0 -219 -18v-1078z" />
<glyph unicode="E" horiz-adv-x="1044" d="M158 0v1380h778v-157h-588v-424h555v-158h-555v-483h621v-158h-811z" />
<glyph unicode="F" horiz-adv-x="1036" d="M158 0v1380h776v-157h-586v-447h541v-158h-541v-618h-190z" />
<glyph unicode="G" horiz-adv-x="1378" d="M76 680q0 314 212.5 514.5t563.5 200.5q214 0 365 -66l-48 -153q-135 61 -323 61q-260 0 -415 -148.5t-155 -398.5q0 -251 149 -400t400 -149q171 0 248 39v398h-287v151h474v-663q-221 -80 -447 -80q-355 0 -546 195t-191 499z" />
<glyph unicode="H" horiz-adv-x="1386" d="M158 0v1380h190v-573h690v573h191v-1380h-191v643h-690v-643h-190z" />
<glyph unicode="I" horiz-adv-x="505" d="M158 0v1380h190v-1380h-190z" />
<glyph unicode="J" horiz-adv-x="788" d="M8 12l29 154q70 -29 160 -29q142 0 200 84t58 264v895h190v-911q0 -492 -432 -492q-120 0 -205 35z" />
<glyph unicode="K" horiz-adv-x="1153" d="M158 0v1380h196v-663q53 77 545 663h238l-516 -585l557 -795h-226l-467 674l-137 -154v-520h-190z" />
<glyph unicode="L" horiz-adv-x="1003" d="M158 0v1380h190v-1220h610v-160h-800z" />
<glyph unicode="M" horiz-adv-x="1701" d="M123 0l96 1380h248q258 -714 296 -831.5t87 -292.5q63 240 142 447l257 677h246l86 -1380h-186l-40 751q-16 325 -22 451q-71 -231 -161 -476l-265 -716h-145q-256 736 -300.5 875t-92.5 317q-14 -386 -29 -622l-37 -580h-180z" />
<glyph unicode="N" horiz-adv-x="1398" d="M158 0v1380h213l452 -690q155 -234 258 -446q-20 188 -20 561v575h178v-1380h-195l-448 692q-169 262 -272 463q12 -200 12 -563v-592h-178z" />
<glyph unicode="O" horiz-adv-x="1472" d="M76 676q0 323 188.5 525t478.5 202q291 0 472.5 -195t181.5 -503q0 -332 -188 -530t-482 -198q-288 0 -469.5 195.5t-181.5 503.5zM274 682q0 -232 127.5 -391.5t329.5 -159.5q209 0 336 158t127 407q0 231 -125.5 392t-333.5 161q-211 0 -336 -160t-125 -407z" />
<glyph unicode="P" horiz-adv-x="1128" d="M158 0v1364q158 29 362 29q261 0 391.5 -112.5t130.5 -295.5q0 -216 -150.5 -332t-393.5 -116q-103 0 -150 14v-551h-190zM348 705q53 -16 154 -17q166 0 258 76.5t92 212.5q0 128 -86.5 197t-243.5 69q-99 0 -174 -14v-524z" />
<glyph unicode="Q" horiz-adv-x="1472" d="M76 674q0 327 188 528t484 201q289 0 469 -195.5t180 -502.5q0 -242 -107 -415.5t-301 -242.5v-8q229 -56 416 -88l-55 -156q-280 71 -553 162q-54 18 -88 20q-275 10 -454 199.5t-179 497.5zM276 680q0 -233 127 -391t330 -158q209 0 336 158t127 407q0 231 -125 392 t-330 161q-213 0 -339 -160.5t-126 -408.5z" />
<glyph unicode="R" horiz-adv-x="1140" d="M158 0v1362q162 31 360 31q274 0 399 -102.5t125 -276.5q0 -123 -70 -215.5t-194 -134.5q150 -58 203 -281q84 -339 111 -383h-197q-29 48 -92 328q-33 145 -97.5 205.5t-183.5 60.5h-174v-594h-190zM348 737h191q143 0 228 70t85 186q0 124 -82.5 189t-237.5 65 q-119 0 -184 -16v-494z" />
<glyph unicode="S" horiz-adv-x="1048" d="M88 70l49 157q155 -92 334 -92q135 0 214 62.5t79 167.5q0 96 -62.5 157t-205.5 109q-197 68 -288 163t-91 230q0 165 129 272t334 107q197 0 319 -70l-51 -153q-117 67 -270 67h-5q-125 0 -194.5 -59t-69.5 -144q0 -86 59.5 -142t223.5 -116q197 -72 280.5 -167.5 t83.5 -239.5q0 -177 -132 -289.5t-367 -112.5q-98 0 -202 26t-167 67z" />
<glyph unicode="T" horiz-adv-x="1058" d="M-2 1221v159h1065v-159h-438v-1221h-191v1221h-436z" />
<glyph unicode="U" horiz-adv-x="1376" d="M158 582v798h190v-805q0 -216 87.5 -330t246.5 -114q167 0 256.5 113.5t89.5 330.5v805h191v-792q0 -297 -142.5 -454t-402.5 -157q-250 0 -383 154t-133 451z" />
<glyph unicode="V" horiz-adv-x="1185" d="M6 1380h207l260 -803q76 -236 117 -387q53 204 162 510l241 680h203l-510 -1380h-213z" />
<glyph unicode="W" horiz-adv-x="1783" d="M29 1380h202q242 -1005 269 -1169h4q29 160 114 477l187 692h203l168 -698q74 -311 98 -467h4q35 193 111 473l186 692h194l-403 -1380h-201l-174 717q-76 313 -92 448h-4q-24 -148 -107 -448l-198 -717h-203z" />
<glyph unicode="X" horiz-adv-x="1218" d="M53 0l439 698l-422 682h223q293 -508 317 -555q5 19 324 555h223l-436 -673l446 -707h-223q-335 556 -348 573l-322 -573h-221z" />
<glyph unicode="Y" horiz-adv-x="1153" d="M27 1380h219q292 -557 340 -661q33 80 346 661h217l-479 -792v-588h-191v584z" />
<glyph unicode="Z" horiz-adv-x="1183" d="M63 0v109l791 1114h-723v157h973v-112l-787 -1110h799v-158h-1053z" />
<glyph unicode="[" horiz-adv-x="593" d="M168 -229v1632h385v-117h-238v-1399h238v-116h-385z" />
<glyph unicode="\" horiz-adv-x="722" d="M6 1403h148l571 -1485h-147z" />
<glyph unicode="]" horiz-adv-x="593" d="M41 -113h238v1399h-238v117h385v-1632h-385v116z" />
<glyph unicode="^" horiz-adv-x="1220" d="M121 385l422 946h135l422 -946h-150l-342 791l-340 -791h-147z" />
<glyph unicode="_" horiz-adv-x="1024" d="M0 -154h1024v-102h-1024v102z" />
<glyph unicode="`" horiz-adv-x="614" d="M39 1411h207l182 -297h-135z" />
<glyph unicode="a" horiz-adv-x="1021" d="M74 262q0 180 156.5 275.5t457.5 95.5v18q0 105 -58 164t-171 59q-152 0 -271 -75l-43 125q143 90 342 90q194 0 293 -106.5t99 -307.5v-362q0 -147 16 -238h-174l-23 127q-112 -150 -313 -150q-141 0 -226 83.5t-85 201.5zM266 287q0 -79 46.5 -123.5t123.5 -44.5 q109 0 182.5 67t73.5 152v164q-240 0 -333 -57.5t-93 -157.5z" />
<glyph unicode="b" horiz-adv-x="1210" d="M145 0q9 94 9 260v1198h194v-629q109 184 350 185q190 0 312.5 -141t122.5 -363q0 -243 -135 -388t-328 -145q-232 0 -351 187l-8 -164h-166zM344 406q0 -111 82.5 -194t204.5 -83q142 0 225.5 101t83.5 272q0 159 -83 260.5t-222 101.5q-123 0 -207 -89.5t-84 -207.5 v-161z" />
<glyph unicode="c" horiz-adv-x="952" d="M78 483q0 234 152 382.5t399 148.5q150 0 262 -56l-41 -145q-94 49 -219 49q-163 0 -261 -103t-98 -263q0 -167 99.5 -266t253.5 -99q118 0 231 49l31 -143q-126 -59 -297 -60q-229 0 -370.5 140.5t-141.5 365.5z" />
<glyph unicode="d" horiz-adv-x="1198" d="M78 479q0 237 132.5 386t328.5 149q104 0 186.5 -41t128.5 -111v596h190v-1198q0 -166 9 -260h-170l-15 176q-49 -94 -141 -146.5t-209 -52.5q-188 0 -314 142t-126 360zM270 492q0 -156 80 -258.5t223 -102.5q110 0 195.5 80.5t85.5 214.5v158q0 126 -81.5 203 t-194.5 77q-138 0 -223 -103.5t-85 -268.5z" />
<glyph unicode="e" horiz-adv-x="1062" d="M78 479q0 227 131.5 381t353.5 154q205 0 314.5 -137t109.5 -334q0 -56 -6 -86h-719q4 -161 99.5 -246.5t246.5 -85.5q165 0 289 51l33 -133q-146 -66 -346 -66q-231 0 -368.5 137.5t-137.5 364.5zM264 594h539q0 128 -66 206.5t-188 78.5q-116 0 -192 -78.5t-93 -206.5z " />
<glyph unicode="f" horiz-adv-x="620" d="M31 846v145h139v45q0 212 97 328.5t270 116.5q87 0 157 -29l-22 -147q-49 22 -113 22h-6q-195 0 -195 -285v-51h244v-145h-242v-846h-190v846h-139z" />
<glyph unicode="g" horiz-adv-x="1187" d="M78 487q0 239 136.5 383t326.5 144q225 0 325 -172l8 149h168q-8 -89 -8 -268v-576q0 -324 -140 -450.5t-382 -126.5q-215 0 -346 86l47 145q132 -82 303 -82q159 0 244.5 88.5t85.5 258.5l-4 108q-108 -170 -328 -170q-187 0 -311.5 139t-124.5 344zM270 498 q0 -153 81.5 -250.5t219.5 -97.5q110 0 191.5 78.5t81.5 203.5v162q0 111 -75 191.5t-196 80.5q-133 0 -218 -101t-85 -267z" />
<glyph unicode="h" horiz-adv-x="1175" d="M154 0v1458h190v-624h4q50 84 140 132t184 48q154 0 256 -110t102 -322v-582h-190v561q0 140 -60.5 217.5t-175.5 77.5q-97 0 -178.5 -73t-81.5 -189v-594h-190z" />
<glyph unicode="i" horiz-adv-x="495" d="M127 1292q0 50 34.5 84.5t88.5 34.5q52 0 86.5 -34.5t34.5 -84.5q0 -51 -34 -86t-89 -35q-53 0 -87 35t-34 86zM154 0v991h190v-991h-190z" />
<glyph unicode="j" horiz-adv-x="518" d="M-96 -285q117 5 175.5 51.5t78.5 127.5t20 272v825h191v-897q0 -310 -127 -419t-318 -109zM152 1292q0 50 34.5 84.5t87.5 34.5t87 -34t34 -85q0 -52 -33.5 -86.5t-89.5 -34.5q-53 0 -86.5 35t-33.5 86z" />
<glyph unicode="k" horiz-adv-x="997" d="M154 0v1458h190l4 -917q38 53 93 115l294 335h232l-396 -405l453 -586h-236l-348 473l-96 -104v-369h-190z" />
<glyph unicode="l" horiz-adv-x="495" d="M154 0v1458h190v-1458h-190z" />
<glyph unicode="m" horiz-adv-x="1763" d="M145 991h166l15 -162q111 184 323 185q98 0 174.5 -53.5t116.5 -147.5q122 201 340 201q147 0 242.5 -111.5t95.5 -327.5v-575h-186v553q0 147 -57 226t-163 79q-91 0 -162 -70t-71 -180v-608h-186v586q0 126 -56.5 199t-154.5 73q-95 0 -168.5 -80t-73.5 -186v-592h-186 v719q0 165 -9 272z" />
<glyph unicode="n" horiz-adv-x="1175" d="M145 991h168l17 -168q47 86 138 138.5t200 52.5q156 0 259 -110t103 -322v-582h-190v561q0 140 -60.5 217.5t-175.5 77.5q-102 0 -181 -77t-79 -187v-592h-190v719q0 165 -9 272z" />
<glyph unicode="o" horiz-adv-x="1167" d="M78 487q0 241 146 384t368 143q221 0 359.5 -142t138.5 -366q0 -160 -67 -280t-186.5 -184.5t-258.5 -64.5q-217 0 -358.5 142t-141.5 368zM272 494q0 -163 87 -269t219 -106q134 0 223.5 106.5t89.5 274.5q0 155 -82.5 263.5t-224.5 108.5q-144 0 -228 -107.5 t-84 -270.5z" />
<glyph unicode="p" horiz-adv-x="1210" d="M145 991h170l11 -172h4q124 195 368 195q186 0 310.5 -141t124.5 -361q0 -245 -134 -390t-333 -145q-101 0 -186 41t-132 117h-4v-541h-190v1072q0 200 -9 325zM344 410q0 -120 83.5 -201.5t201.5 -81.5q143 0 227 102t84 275q0 156 -83 257t-220 101q-88 0 -162 -50.5 t-102.5 -124t-28.5 -118.5v-159z" />
<glyph unicode="q" horiz-adv-x="1196" d="M78 479q0 163 61.5 284t170 186t231.5 65q223 0 321 -174l6 151h185q-8 -111 -9 -270v-1127h-190v564q-108 -180 -342 -181q-184 0 -309 141.5t-125 360.5zM270 492q0 -161 81 -262t220 -101q125 0 204 89t79 192v176q0 122 -81 200t-195 78q-139 0 -223.5 -102.5 t-84.5 -269.5z" />
<glyph unicode="r" horiz-adv-x="696" d="M145 991h168l13 -198q38 104 115.5 162.5t168.5 58.5q19 0 52 -4v-181q-28 6 -66 7q-103 0 -177.5 -81t-74.5 -231v-524h-190v676q0 193 -9 315z" />
<glyph unicode="s" horiz-adv-x="841" d="M84 47l45 146q121 -74 250 -74q92 0 142 39t50 104q0 62 -41.5 101.5t-144.5 74.5q-272 93 -272 281q0 125 96.5 210t257.5 85q150 0 254 -62l-47 -137q-103 59 -213 59q-76 0 -120 -37t-44 -96q0 -52 37.5 -88t154.5 -78q143 -51 206 -121t63 -175q0 -135 -103 -218.5 t-280 -83.5q-163 0 -291 70z" />
<glyph unicode="t" horiz-adv-x="700" d="M37 846v145h156v185l186 55v-240h264v-145h-264v-516q0 -103 33 -149t106 -46q67 0 109 12l8 -143q-71 -27 -170 -27q-272 0 -272 340v529h-156z" />
<glyph unicode="u" horiz-adv-x="1169" d="M147 418v573h191v-540q0 -315 227 -316q104 0 182 75t78 181v600h191v-717q0 -169 8 -274h-168l-16 168q-115 -190 -340 -191q-163 0 -258 112t-95 329z" />
<glyph unicode="v" horiz-adv-x="1024" d="M27 991h206l211 -583q36 -98 76 -222q28 93 85 253l198 552h203l-404 -991h-186z" />
<glyph unicode="w" horiz-adv-x="1550" d="M37 991h194q195 -721 209 -815h4q11 80 254 815h162q220 -689 246 -815h4q29 154 72 301l149 514h189l-328 -991h-176q-169 520 -190.5 591.5t-49.5 201.5h-4q-34 -155 -89 -316l-165 -477h-176z" />
<glyph unicode="x" horiz-adv-x="987" d="M14 0l365 508l-348 483h215q241 -350 252 -368q49 85 243 368h209l-348 -477l359 -514h-218q-202 293 -264 391q-23 -47 -252 -391h-213z" />
<glyph unicode="y" horiz-adv-x="1001" d="M18 991h209l226 -591q29 -74 67 -189q40 138 62 200l202 580h205l-280 -708q-134 -338 -217.5 -467t-181.5 -191t-183 -78l-45 160q155 48 241.5 166t86.5 158q0 17 -13 47z" />
<glyph unicode="z" horiz-adv-x="909" d="M39 0v111l455 567q63 75 137 162h-553v151h788l-2 -117l-448 -561q-90 -111 -135 -161h593v-152h-835z" />
<glyph unicode="{" horiz-adv-x="593" d="M57 537v108q82 0 125 34t43 118q0 62 -16 168t-16 168q0 136 81 203t222 67h47v-119h-37q-85 0 -125.5 -42t-40.5 -134q0 -55 15.5 -147.5t15.5 -147.5q0 -180 -152 -223q152 -37 152 -223q0 -57 -17 -156q-14 -86 -14 -143q0 -180 166 -181h37v-116h-47q-303 0 -303 282 q0 55 16 166t16 164q0 154 -168 154z" />
<glyph unicode="|" horiz-adv-x="503" d="M180 -512v2048h144v-2048h-144z" />
<glyph unicode="}" horiz-adv-x="593" d="M51 -113h37q166 0 166 181q0 57 -14 143q-16 98 -17 156q0 186 152 227q-152 39 -152 219q0 55 17 154q14 86 14 141q0 92 -40.5 134t-125.5 42h-37v119h47q145 0 224 -69.5t79 -200.5q0 -53 -16 -168q-16 -111 -16 -168q0 -84 42.5 -118t123.5 -34l2 -108 q-168 0 -168 -154q0 -53 16 -164t16 -166q0 -283 -303 -282h-47v116z" />
<glyph unicode="~" horiz-adv-x="1220" d="M92 426q0 166 71 241.5t179 75.5q62 0 120 -19t173 -75q183 -86 254 -86q108 0 110 174h129q0 -124 -29 -190t-85.5 -97.5t-126.5 -31.5q-60 0 -125.5 20t-173.5 72q-193 90 -244 90q-117 0 -123 -174h-129z" />
<glyph unicode="&#xa1;" horiz-adv-x="483" d="M115 866q0 57 35.5 95t91.5 38q55 0 91 -37.5t36 -95.5t-35.5 -95.5t-91.5 -37.5q-55 0 -91 38t-36 95zM139 -397l31 970h145l31 -970h-207z" />
<glyph unicode="&#xa2;" d="M139 668q0 197 114 337t312 173v206h135v-202q125 -3 232 -54l-43 -143q-90 51 -221 51q-150 0 -244 -101t-94 -257q0 -161 93 -257.5t236 -96.5q128 0 242 51l33 -137q-100 -53 -234 -62v-207h-135v209q-202 20 -314 153t-112 337z" />
<glyph unicode="&#xa3;" d="M119 0v106q113 58 175 152.5t62 202.5q0 72 -10 137h-213v137h195q-23 131 -23 215q0 180 113 292t293 112q143 0 231 -51l-41 -146q-75 43 -188 43t-171.5 -66.5t-58.5 -189.5q0 -96 23 -209h303v-137h-285q3 -60 3 -95q0 -211 -152 -345h624v-158h-880z" />
<glyph unicode="&#xa4;" d="M63 1073l97 98l143 -157q95 84 240 84q147 0 241 -82l148 155l96 -98l-164 -145q74 -99 74 -242q0 -156 -74 -252l154 -151l-94 -97l-142 160q-98 -86 -243 -86q-148 0 -240 80l-137 -154l-94 97l149 143q-78 105 -78 248q0 148 82 254zM293 678q0 -131 74 -207t172 -76 q106 0 177.5 76t71.5 213q0 116 -68.5 197.5t-178.5 81.5t-179 -81.5t-69 -203.5z" />
<glyph unicode="&#xa5;" d="M33 1331h205l305 -606l309 606h203l-377 -620h268v-105h-325v-147h325v-105h-325v-354h-181v354h-323v105h323v147h-323v105h270z" />
<glyph unicode="&#xa6;" horiz-adv-x="503" d="M180 356h144v-716h-144v716zM180 664v716h144v-716h-144z" />
<glyph unicode="&#xa7;" horiz-adv-x="1097" d="M125 690q0 143 151 240q-76 67 -75 174q0 131 109 212t280 81q165 0 295 -68l-45 -123q-115 66 -256 66q-95 0 -155 -41.5t-60 -108.5q0 -55 46.5 -96.5t213.5 -93.5q201 -65 272.5 -141t71.5 -185q0 -150 -135 -248q82 -73 82 -184q0 -152 -120 -230.5t-282 -78.5 q-209 0 -334 88l52 123q122 -84 280 -84q103 0 166 44.5t63 119.5q0 74 -57 118.5t-194 90.5q-220 73 -294.5 147t-74.5 178zM281 717q0 -119 219 -195q197 -71 239 -96q76 61 76 154q0 125 -184 190q-210 71 -258 102q-92 -63 -92 -155z" />
<glyph unicode="&#xa8;" horiz-adv-x="614" d="M10 1245q0 45 30.5 76t76.5 31q42 0 71 -31t29 -76q0 -44 -29 -75t-73 -31q-45 0 -75 31t-30 75zM395 1245q0 45 30.5 76t74.5 31t73 -31t29 -76q0 -44 -29 -75t-73 -31q-46 0 -75.5 30.5t-29.5 75.5z" />
<glyph unicode="&#xa9;" horiz-adv-x="1386" d="M74 696q0 261 181.5 446t440.5 185q257 0 437 -185t180 -446q0 -264 -180 -449.5t-437 -185.5q-259 0 -440.5 185.5t-181.5 449.5zM180 690q0 -228 150 -384t368 -156q215 0 363.5 157.5t148.5 388.5q0 228 -148.5 385.5t-363.5 157.5q-219 0 -368.5 -158t-149.5 -391z M354 684q0 169 116 275t275 106q153 0 226 -55l-25 -84q-86 49 -201 49q-133 0 -207.5 -77t-74.5 -208q0 -125 75 -206t210 -81q126 0 208 56l25 -80q-96 -66 -252 -66q-170 0 -272.5 103.5t-102.5 267.5z" />
<glyph unicode="&#xaa;" horiz-adv-x="731" d="M70 731q0 103 98.5 168.5t320.5 65.5v20q0 46 -37.5 83.5t-115.5 37.5q-105 0 -180 -55l-35 92q104 68 244 67q266 0 266 -290v-213q0 -89 12 -160h-129l-12 86h-4q-86 -96 -213 -96q-98 0 -156.5 54.5t-58.5 139.5zM213 739q0 -46 34.5 -74t84.5 -28q75 0 118.5 49.5 t43.5 81.5v104q-166 0 -223.5 -36.5t-57.5 -96.5z" />
<glyph unicode="&#xab;" horiz-adv-x="880" d="M59 518l275 379h153l-278 -379l278 -381h-151zM406 518l274 379h151l-276 -379l279 -381h-154z" />
<glyph unicode="&#xac;" horiz-adv-x="1220" d="M82 692v129h1057v-575h-138v446h-919z" />
<glyph unicode="&#xad;" horiz-adv-x="636" d="M61 485v140h514v-140h-514z" />
<glyph unicode="&#xae;" horiz-adv-x="1044" d="M68 940q0 190 134 324.5t322 134.5q189 0 322 -133.5t133 -325.5q0 -194 -132.5 -328.5t-322.5 -134.5q-189 0 -322.5 134.5t-133.5 328.5zM158 940q0 -163 107.5 -277t260.5 -114q152 0 259.5 114t107.5 275q0 162 -107.5 275.5t-261.5 113.5q-151 0 -258.5 -113.5 t-107.5 -273.5zM354 672v514q82 12 146 12q209 0 209 -147q0 -91 -101 -127q71 -13 86 -125q15 -100 33 -127h-88q-14 16 -35 133q-14 88 -110 88h-56v-221h-84zM438 956h58q125 0 125 86q0 90 -123 91q-32 -1 -60 -5v-172z" />
<glyph unicode="&#xaf;" horiz-adv-x="614" d="M74 1200v115h471v-115h-471z" />
<glyph unicode="&#xb0;" horiz-adv-x="665" d="M59 1124q0 118 81 198.5t198 80.5q122 0 198 -78t76 -190q0 -121 -83.5 -199t-194.5 -78q-119 0 -197 77.5t-78 188.5zM178 1126q0 -71 45 -119.5t113 -48.5q70 0 116 49t46 123q0 72 -42.5 122.5t-119.5 50.5q-72 0 -115 -52t-43 -125z" />
<glyph unicode="&#xb1;" horiz-adv-x="1220" d="M84 0v129h1055v-129h-1055zM84 649v129h459v396h137v-396h459v-129h-459v-407h-137v407h-459z" />
<glyph unicode="&#xb2;" horiz-adv-x="739" d="M92 547v82q287 253 340 326.5t53 138.5q0 62 -41 100.5t-114 38.5q-87 0 -178 -64l-46 97q106 88 261 88q131 0 205.5 -67t74.5 -165q0 -81 -49.5 -168t-290.5 -288h355v-119h-570z" />
<glyph unicode="&#xb3;" horiz-adv-x="716" d="M74 596l39 106q93 -55 198 -55q84 0 132.5 40t48.5 93q0 70 -65.5 105t-156.5 35h-59v98h59q77 0 133 33t56 92q0 44 -34.5 72t-96.5 28q-95 0 -176 -55l-41 100q106 66 245 66q124 0 192 -54.5t68 -140.5q0 -59 -42 -108.5t-117 -79.5q90 -12 142 -67t52 -130 q0 -100 -90.5 -168.5t-241.5 -68.5q-152 0 -245 59z" />
<glyph unicode="&#xb4;" horiz-adv-x="614" d="M203 1114l182 297h207l-254 -297h-135z" />
<glyph unicode="&#xb5;" horiz-adv-x="1169" d="M147 -406v1397h191v-555q0 -144 59 -221.5t172 -77.5q100 0 178 74t78 160v620h191v-717q0 -169 8 -274h-168l-16 170q-112 -190 -310 -190q-145 0 -213 114l7 -500h-177z" />
<glyph unicode="&#xb6;" horiz-adv-x="1079" d="M70 930q0 143 65 246.5t194 156.5t320 53q173 0 250 -18v-1468h-135v1355h-150v-1355h-135v639h-14q-148 0 -271.5 108.5t-123.5 282.5z" />
<glyph unicode="&#xb7;" horiz-adv-x="434" d="M88 559q0 58 36.5 96.5t92.5 38.5t91.5 -37.5t35.5 -97.5q0 -57 -36.5 -95t-92.5 -38q-55 0 -91 38.5t-36 94.5z" />
<glyph unicode="&#xb8;" horiz-adv-x="614" d="M106 -373l31 88q55 -29 113 -28q88 0 88 63q0 71 -162 84l98 170h115l-65 -106q63 -8 103 -47t40 -93q0 -82 -58 -125t-161 -43q-82 0 -142 37z" />
<glyph unicode="&#xb9;" horiz-adv-x="669" d="M127 1253l195 90h133v-796h-152l-4 665l-147 -69z" />
<glyph unicode="&#xba;" horiz-adv-x="745" d="M35 866q0 154 99 249t241 95q151 0 243.5 -93t92.5 -238q0 -164 -101.5 -253t-238.5 -89q-144 0 -240 93t-96 236zM182 870q0 -98 57.5 -162.5t135.5 -64.5q84 0 138 63.5t54 167.5q0 92 -52 161t-140 69t-140.5 -68.5t-52.5 -165.5z" />
<glyph unicode="&#xbb;" horiz-adv-x="880" d="M47 897h152l276 -379l-276 -381h-150l279 381zM391 137l279 381l-279 379h150l278 -379l-276 -381h-152z" />
<glyph unicode="&#xbc;" horiz-adv-x="1599" d="M90 1253l195 90h133v-796h-152l-4 665l-147 -69zM297 -23l782 1377h123l-786 -1377h-119zM834 207v84l405 518h162v-498h125v-104h-125v-207h-144v207h-423zM989 311h268v242l3 127q-51 -86 -70 -110z" />
<glyph unicode="&#xbd;" horiz-adv-x="1599" d="M61 1253l195 90h133v-796h-151l-5 665l-147 -69zM258 -23l782 1377h121l-784 -1377h-119zM928 0v82q288 258 340.5 330.5t52.5 136.5q0 62 -41 100.5t-115 38.5q-89 0 -176 -63l-45 96q106 88 258 88q131 0 206 -67t75 -164q0 -71 -42.5 -151.5t-295.5 -307.5h352v-119 h-569z" />
<glyph unicode="&#xbe;" horiz-adv-x="1599" d="M61 596l39 104q90 -53 199 -53q84 0 132 40t48 93q0 66 -62 103t-159 37h-59v98h59q77 0 132.5 33t55.5 92q0 42 -32 71t-99 29q-89 0 -176 -55l-41 100q106 66 246 66q124 0 192 -54.5t68 -140.5q0 -59 -42 -108.5t-118 -75.5v-4q90 -12 142.5 -67t52.5 -130 q0 -99 -88.5 -168t-243.5 -69q-152 0 -246 59zM375 -23l784 1377h121l-784 -1377h-121zM858 207v84l404 518h161v-498h125v-104h-125v-207h-143v207h-422zM1014 311h266v242q0 17 2 127l-40 -67q-19 -31 -75 -102z" />
<glyph unicode="&#xbf;" horiz-adv-x="860" d="M121 -123q0 67 30.5 140.5t149.5 211.5q47 53 83 120t36 177l-2 54h170q5 -71 5 -85q0 -165 -132 -319q-81 -94 -112.5 -155.5t-31.5 -118.5q0 -82 51 -128t144 -46q124 0 217 67l51 -137q-130 -86 -307 -86q-164 0 -258 86t-94 219zM373 866q0 58 36 95.5t93 37.5 q56 0 91.5 -37t35.5 -96q0 -58 -36 -95.5t-93 -37.5q-55 0 -91 38t-36 95z" />
<glyph unicode="&#xc0;" horiz-adv-x="1302" d="M51 0l484 1380h233l487 -1380h-204l-152 430h-504l-145 -430h-199zM339 1729h230l188 -242h-154zM434 578h426q-185 520 -217 641q-45 -171 -209 -641z" />
<glyph unicode="&#xc1;" horiz-adv-x="1302" d="M51 0l484 1380h233l487 -1380h-204l-152 430h-504l-145 -430h-199zM434 578h426q-185 520 -217 641q-45 -171 -209 -641zM508 1484l191 244h227l-262 -244h-156z" />
<glyph unicode="&#xc2;" horiz-adv-x="1302" d="M51 0l484 1380h233l487 -1380h-204l-152 430h-504l-145 -430h-199zM379 1485l213 244h139l217 -244h-156l-133 149l-131 -149h-149zM434 578h426q-185 520 -217 641q-45 -171 -209 -641z" />
<glyph unicode="&#xc3;" horiz-adv-x="1302" d="M51 0l484 1380h233l487 -1380h-204l-152 430h-504l-145 -430h-199zM390 1495q0 108 40 157.5t99 49.5q51 0 129 -41q70 -37 101 -37q28 0 41.5 17.5t17.5 68.5h96q0 -203 -141 -203q-48 0 -129 39q-82 39 -102 39q-44 0 -54 -90h-98zM434 578h426q-185 520 -217 641 q-45 -171 -209 -641z" />
<glyph unicode="&#xc4;" horiz-adv-x="1302" d="M51 0l484 1380h233l487 -1380h-204l-152 430h-504l-145 -430h-199zM361 1612q0 44 31 75t76 31q43 0 72.5 -31t29.5 -75t-29 -75.5t-73 -31.5q-45 0 -76 31.5t-31 75.5zM434 578h426q-185 520 -217 641q-45 -171 -209 -641zM746 1612q0 44 30.5 75t74.5 31t74 -30.5 t30 -75.5q0 -44 -29 -75.5t-73 -31.5q-46 0 -76.5 31.5t-30.5 75.5z" />
<glyph unicode="&#xc5;" horiz-adv-x="1302" d="M51 0l477 1360q-98 41 -98 149q0 83 61.5 140t165.5 57t165 -54t61 -143q0 -113 -109 -153l479 -1356h-204l-152 430h-502l-145 -430h-199zM434 578h428l-154 433l-65 206q-26 -116 -59 -213zM545 1511q0 -45 30.5 -76.5t79.5 -31.5q51 0 82 31.5t31 81.5t-30.5 81 t-82.5 31q-51 0 -80.5 -32t-29.5 -85z" />
<glyph unicode="&#xc6;" horiz-adv-x="1679" d="M-4 0l653 1380h903v-157h-608l55 -426h533v-158h-508l63 -481h523v-158h-686l-64 483h-440l-227 -483h-197zM485 637h353q-70 556 -82 606q-37 -93 -88 -205z" />
<glyph unicode="&#xc7;" horiz-adv-x="1239" d="M76 678q0 318 206.5 521.5t542.5 203.5q212 0 346 -64l-47 -153q-129 59 -290 59q-257 0 -407.5 -151t-150.5 -412q0 -248 144.5 -396.5t402.5 -148.5q177 1 307 60l39 -152q-144 -68 -389 -68l-51 -77q65 -11 104 -52t39 -96q0 -78 -58 -120t-159 -42q-79 0 -143 35 l31 90q51 -29 112 -28q86 0 86 63q0 71 -159 84l86 152q-280 37 -436 221t-156 471z" />
<glyph unicode="&#xc8;" horiz-adv-x="1044" d="M158 0v1380h778v-157h-588v-424h555v-158h-555v-483h621v-158h-811zM266 1729h230l188 -242h-154z" />
<glyph unicode="&#xc9;" horiz-adv-x="1044" d="M158 0v1380h778v-157h-588v-424h555v-158h-555v-483h621v-158h-811zM447 1484l191 244h227l-262 -244h-156z" />
<glyph unicode="&#xca;" horiz-adv-x="1044" d="M158 0v1380h778v-157h-588v-424h555v-158h-555v-483h621v-158h-811zM265 1485l213 244h139l217 -244h-156l-133 149l-131 -149h-149z" />
<glyph unicode="&#xcb;" horiz-adv-x="1044" d="M158 0v1380h778v-157h-588v-424h555v-158h-555v-483h621v-158h-811zM255 1612q0 44 31 75t76 31q43 0 72.5 -31t29.5 -75t-29 -75.5t-73 -31.5q-45 0 -76 31.5t-31 75.5zM640 1612q0 44 30.5 75t74.5 31t74 -30.5t30 -75.5q0 -44 -29 -75.5t-73 -31.5q-46 0 -76.5 31.5 t-30.5 75.5z" />
<glyph unicode="&#xcc;" horiz-adv-x="505" d="M-50 1729h230l188 -242h-154zM158 0v1380h190v-1380h-190z" />
<glyph unicode="&#xcd;" horiz-adv-x="505" d="M149 1484l191 244h227l-262 -244h-156zM158 0v1380h190v-1380h-190z" />
<glyph unicode="&#xce;" horiz-adv-x="505" d="M-29 1485l213 244h139l217 -244h-156l-133 149l-131 -149h-149zM158 0v1380h190v-1380h-190z" />
<glyph unicode="&#xcf;" horiz-adv-x="505" d="M-42 1612q0 44 31 75t76 31q43 0 72.5 -31t29.5 -75t-29 -75.5t-73 -31.5q-45 0 -76 31.5t-31 75.5zM159 0v1380h190v-1380h-190zM343 1612q0 44 30.5 75t74.5 31t74 -30.5t30 -75.5q0 -44 -29 -75.5t-73 -31.5q-46 0 -76.5 31.5t-30.5 75.5z" />
<glyph unicode="&#xd0;" horiz-adv-x="1431" d="M-2 623v153h170v590q193 31 401 31q403 0 594 -183.5t191 -488.5q0 -341 -209.5 -541t-634.5 -200q-191 0 -342 16v623h-170zM358 143q41 -8 189 -8q293 0 449.5 152t156.5 434q0 255 -147.5 390.5t-427.5 135.5q-130 0 -220 -18v-453h381v-153h-381v-480z" />
<glyph unicode="&#xd1;" horiz-adv-x="1398" d="M158 0v1380h213l452 -690q155 -234 258 -446q-20 188 -20 561v575h178v-1380h-195l-448 692q-169 262 -272 463q12 -200 12 -563v-592h-178zM457 1485q0 108 40 157.5t99 49.5q51 0 129 -41q70 -37 101 -37q28 0 41.5 17.5t17.5 68.5h96q0 -203 -141 -203q-48 0 -129 39 q-82 39 -102 39q-44 0 -54 -90h-98z" />
<glyph unicode="&#xd2;" horiz-adv-x="1472" d="M76 676q0 323 188.5 525t478.5 202q291 0 472.5 -195t181.5 -503q0 -332 -188 -530t-482 -198q-288 0 -469.5 195.5t-181.5 503.5zM274 682q0 -232 127.5 -391.5t329.5 -159.5q209 0 336 158t127 407q0 231 -125.5 392t-333.5 161q-211 0 -336 -160t-125 -407zM422 1729 h230l188 -242h-154z" />
<glyph unicode="&#xd3;" horiz-adv-x="1472" d="M76 676q0 323 188.5 525t478.5 202q291 0 472.5 -195t181.5 -503q0 -332 -188 -530t-482 -198q-288 0 -469.5 195.5t-181.5 503.5zM274 682q0 -232 127.5 -391.5t329.5 -159.5q209 0 336 158t127 407q0 231 -125.5 392t-333.5 161q-211 0 -336 -160t-125 -407zM651 1484 l191 244h227l-262 -244h-156z" />
<glyph unicode="&#xd4;" horiz-adv-x="1472" d="M76 676q0 323 188.5 525t478.5 202q291 0 472.5 -195t181.5 -503q0 -332 -188 -530t-482 -198q-288 0 -469.5 195.5t-181.5 503.5zM274 682q0 -232 127.5 -391.5t329.5 -159.5q209 0 336 158t127 407q0 231 -125.5 392t-333.5 161q-211 0 -336 -160t-125 -407zM453 1485 l213 244h139l217 -244h-156l-133 149l-131 -149h-149z" />
<glyph unicode="&#xd5;" horiz-adv-x="1472" d="M76 676q0 323 188.5 525t478.5 202q291 0 472.5 -195t181.5 -503q0 -332 -188 -530t-482 -198q-288 0 -469.5 195.5t-181.5 503.5zM274 682q0 -232 127.5 -391.5t329.5 -159.5q209 0 336 158t127 407q0 231 -125.5 392t-333.5 161q-211 0 -336 -160t-125 -407zM474 1495 q0 108 40 157.5t99 49.5q51 0 129 -41q70 -37 101 -37q28 0 41.5 17.5t17.5 68.5h96q0 -203 -141 -203q-48 0 -129 39q-82 39 -102 39q-44 0 -54 -90h-98z" />
<glyph unicode="&#xd6;" horiz-adv-x="1472" d="M76 676q0 323 188.5 525t478.5 202q291 0 472.5 -195t181.5 -503q0 -332 -188 -530t-482 -198q-288 0 -469.5 195.5t-181.5 503.5zM274 682q0 -232 127.5 -391.5t329.5 -159.5q209 0 336 158t127 407q0 231 -125.5 392t-333.5 161q-211 0 -336 -160t-125 -407zM439 1612 q0 44 31 75t76 31q43 0 72.5 -31t29.5 -75t-29 -75.5t-73 -31.5q-45 0 -76 31.5t-31 75.5zM824 1612q0 44 30.5 75t74.5 31t74 -30.5t30 -75.5q0 -44 -29 -75.5t-73 -31.5q-46 0 -76.5 31.5t-30.5 75.5z" />
<glyph unicode="&#xd7;" horiz-adv-x="1220" d="M82 94l434 447l-434 444l94 94l434 -444l434 444l95 -94l-434 -444l434 -447l-95 -94l-434 444l-434 -444z" />
<glyph unicode="&#xd8;" horiz-adv-x="1472" d="M76 682q0 317 189 519t478 202q201 0 357 -109l127 168l114 -80l-131 -174q186 -200 187 -506q0 -331 -187.5 -528t-470.5 -197q-203 0 -360 109l-135 -178l-109 88l131 176q-190 204 -190 510zM270 692q0 -194 105 -366l631 833q-114 94 -267 94q-213 0 -341 -160.5 t-128 -400.5zM473 221q109 -94 262 -94q210 0 338.5 161t128.5 408q0 197 -100 353h-4z" />
<glyph unicode="&#xd9;" horiz-adv-x="1376" d="M158 582v798h190v-805q0 -216 87.5 -330t246.5 -114q167 0 256.5 113.5t89.5 330.5v805h191v-792q0 -297 -142.5 -454t-402.5 -157q-250 0 -383 154t-133 451zM391 1729h230l188 -242h-154z" />
<glyph unicode="&#xda;" horiz-adv-x="1376" d="M158 582v798h190v-805q0 -216 87.5 -330t246.5 -114q167 0 256.5 113.5t89.5 330.5v805h191v-792q0 -297 -142.5 -454t-402.5 -157q-250 0 -383 154t-133 451zM596 1484l191 244h227l-262 -244h-156z" />
<glyph unicode="&#xdb;" horiz-adv-x="1376" d="M158 582v798h190v-805q0 -216 87.5 -330t246.5 -114q167 0 256.5 113.5t89.5 330.5v805h191v-792q0 -297 -142.5 -454t-402.5 -157q-250 0 -383 154t-133 451zM420 1485l213 244h139l217 -244h-156l-133 149l-131 -149h-149z" />
<glyph unicode="&#xdc;" horiz-adv-x="1376" d="M158 582v798h190v-805q0 -216 87.5 -330t246.5 -114q167 0 256.5 113.5t89.5 330.5v805h191v-792q0 -297 -142.5 -454t-402.5 -157q-250 0 -383 154t-133 451zM396 1612q0 44 31 75t76 31q43 0 72.5 -31t29.5 -75t-29 -75.5t-73 -31.5q-45 0 -76 31.5t-31 75.5zM781 1612 q0 44 30.5 75t74.5 31t74 -30.5t30 -75.5q0 -44 -29 -75.5t-73 -31.5q-46 0 -76.5 31.5t-30.5 75.5z" />
<glyph unicode="&#xdd;" horiz-adv-x="1153" d="M27 1380h219q292 -557 340 -661q33 80 346 661h217l-479 -792v-588h-191v584zM502 1484l191 244h227l-262 -244h-156z" />
<glyph unicode="&#xde;" horiz-adv-x="1126" d="M158 0v1380h188v-268q92 16 205 16q245 0 368 -109.5t123 -273.5q0 -209 -142.5 -325.5t-389.5 -116.5q-90 0 -164 10v-313h-188zM346 469q53 -14 162 -14q163 0 253.5 72t90.5 198q0 123 -83.5 188.5t-236.5 65.5q-115 0 -186 -16v-494z" />
<glyph unicode="&#xdf;" horiz-adv-x="1157" d="M154 0v922q0 292 121.5 425.5t336.5 133.5q164 0 271.5 -97t107.5 -256q0 -100 -49 -165q-145 -65 -145 -164q0 -48 23.5 -84.5t78.5 -89.5q110 -110 140 -180t30 -138q0 -148 -101.5 -239t-273.5 -91q-136 0 -223 43l33 146q89 -41 174 -41q92 0 146.5 47t54.5 121 q0 55 -24 100.5t-85 102.5q-101 94 -132.5 155t-31.5 121q0 159 182 254q18 37 19 84q0 101 -58.5 161t-156.5 60q-128 0 -188 -97t-60 -300v-934h-190z" />
<glyph unicode="&#xe0;" horiz-adv-x="1021" d="M74 262q0 180 156.5 275.5t457.5 95.5v18q0 105 -58 164t-171 59q-152 0 -271 -75l-43 125q143 90 342 90q194 0 293 -106.5t99 -307.5v-362q0 -147 16 -238h-174l-23 127q-112 -150 -313 -150q-141 0 -226 83.5t-85 201.5zM205 1411h207l182 -297h-135zM266 287 q0 -79 46.5 -123.5t123.5 -44.5q109 0 182.5 67t73.5 152v164q-240 0 -333 -57.5t-93 -157.5z" />
<glyph unicode="&#xe1;" horiz-adv-x="1021" d="M74 262q0 180 156.5 275.5t457.5 95.5v18q0 105 -58 164t-171 59q-152 0 -271 -75l-43 125q143 90 342 90q194 0 293 -106.5t99 -307.5v-362q0 -147 16 -238h-174l-23 127q-112 -150 -313 -150q-141 0 -226 83.5t-85 201.5zM266 287q0 -79 46.5 -123.5t123.5 -44.5 q109 0 182.5 67t73.5 152v164q-240 0 -333 -57.5t-93 -157.5zM400 1114l182 297h207l-254 -297h-135z" />
<glyph unicode="&#xe2;" horiz-adv-x="1021" d="M74 262q0 180 156.5 275.5t457.5 95.5v18q0 105 -58 164t-171 59q-152 0 -271 -75l-43 125q143 90 342 90q194 0 293 -106.5t99 -307.5v-362q0 -147 16 -238h-174l-23 127q-112 -150 -313 -150q-141 0 -226 83.5t-85 201.5zM240 1114l197 297h129l200 -297h-143l-125 195 l-119 -195h-139zM266 287q0 -79 46.5 -123.5t123.5 -44.5q109 0 182.5 67t73.5 152v164q-240 0 -333 -57.5t-93 -157.5z" />
<glyph unicode="&#xe3;" horiz-adv-x="1021" d="M74 262q0 180 156.5 275.5t457.5 95.5v18q0 105 -58 164t-171 59q-152 0 -271 -75l-43 125q143 90 342 90q194 0 293 -106.5t99 -307.5v-362q0 -147 16 -238h-174l-23 127q-112 -150 -313 -150q-141 0 -226 83.5t-85 201.5zM248 1151q0 97 35.5 153t99.5 56q46 0 134 -47 q61 -35 94 -35q48 0 53 88h94q0 -203 -139 -203q-50 0 -129 45q-61 35 -92 35q-46 0 -53 -92h-97zM266 287q0 -79 46.5 -123.5t123.5 -44.5q109 0 182.5 67t73.5 152v164q-240 0 -333 -57.5t-93 -157.5z" />
<glyph unicode="&#xe4;" horiz-adv-x="1021" d="M74 262q0 180 156.5 275.5t457.5 95.5v18q0 105 -58 164t-171 59q-152 0 -271 -75l-43 125q143 90 342 90q194 0 293 -106.5t99 -307.5v-362q0 -147 16 -238h-174l-23 127q-112 -150 -313 -150q-141 0 -226 83.5t-85 201.5zM215 1245q0 45 30.5 76t76.5 31q42 0 71 -31 t29 -76q0 -44 -29 -75t-73 -31q-45 0 -75 31t-30 75zM266 287q0 -79 46.5 -123.5t123.5 -44.5q109 0 182.5 67t73.5 152v164q-240 0 -333 -57.5t-93 -157.5zM600 1245q0 45 30.5 76t74.5 31t73 -31t29 -76q0 -44 -29 -75t-73 -31q-46 0 -75.5 30.5t-29.5 75.5z" />
<glyph unicode="&#xe5;" horiz-adv-x="1021" d="M74 262q0 180 156.5 275.5t457.5 95.5v18q0 105 -58 164t-171 59q-152 0 -271 -75l-43 125q143 90 342 90q194 0 293 -106.5t99 -307.5v-362q0 -147 16 -238h-174l-23 127q-112 -150 -313 -150q-141 0 -226 83.5t-85 201.5zM266 287q0 -79 46.5 -123.5t123.5 -44.5 q109 0 182.5 67t73.5 152v164q-240 0 -333 -57.5t-93 -157.5zM269 1286q0 83 59 139t154 56q93 0 151 -55t58 -140q0 -81 -60 -135.5t-149 -54.5q-92 0 -152.5 54.5t-60.5 135.5zM377 1286q0 -44 30 -77t73 -33q47 0 76.5 32t29.5 80q0 47 -29 80t-77 33q-45 0 -74 -33.5 t-29 -81.5z" />
<glyph unicode="&#xe6;" horiz-adv-x="1638" d="M74 260q0 166 149 263.5t469 97.5v38q0 78 -59 146.5t-176 68.5q-152 0 -269 -77l-45 125q153 92 324 92q259 0 338 -209q116 209 356 209q193 0 297.5 -139.5t104.5 -321.5q-1 -53 -7 -82h-686q0 -173 92.5 -259.5t231.5 -86.5q165 0 281 57l34 -135q-140 -70 -338 -70 q-132 0 -238 58t-157 162q-51 -105 -151.5 -162.5t-229.5 -57.5q-147 0 -234 81.5t-87 201.5zM264 276q0 -72 49 -115.5t125 -43.5q110 0 184 68.5t74 170.5v138q-251 0 -341.5 -60t-90.5 -158zM870 606h510q0 118 -64.5 196.5t-174.5 78.5q-114 0 -189 -80t-82 -195z" />
<glyph unicode="&#xe7;" horiz-adv-x="952" d="M78 485q0 232 152.5 380.5t400.5 148.5q147 0 260 -56l-41 -145q-94 49 -219 49q-163 0 -261 -103t-98 -263q0 -164 99.5 -264.5t255.5 -100.5q119 0 229 49l35 -143q-118 -54 -279 -57l-49 -80q65 -9 104.5 -48.5t39.5 -93.5q0 -81 -58.5 -124.5t-161.5 -43.5 q-82 0 -141 37l31 90q50 -31 110 -30q90 0 91 63q0 71 -162 84l86 152q-199 27 -311.5 164t-112.5 335z" />
<glyph unicode="&#xe8;" horiz-adv-x="1062" d="M78 479q0 227 131.5 381t353.5 154q205 0 314.5 -137t109.5 -334q0 -56 -6 -86h-719q4 -161 99.5 -246.5t246.5 -85.5q165 0 289 51l33 -133q-146 -66 -346 -66q-231 0 -368.5 137.5t-137.5 364.5zM264 594h539q0 128 -66 206.5t-188 78.5q-116 0 -192 -78.5t-93 -206.5z M289 1411h207l182 -297h-135z" />
<glyph unicode="&#xe9;" horiz-adv-x="1062" d="M78 479q0 227 131.5 381t353.5 154q205 0 314.5 -137t109.5 -334q0 -56 -6 -86h-719q4 -161 99.5 -246.5t246.5 -85.5q165 0 289 51l33 -133q-146 -66 -346 -66q-231 0 -368.5 137.5t-137.5 364.5zM254 1114l182 297h207l-254 -297h-135zM264 594h539q0 128 -66 206.5 t-188 78.5q-116 0 -192 -78.5t-93 -206.5z" />
<glyph unicode="&#xea;" horiz-adv-x="1062" d="M78 479q0 227 131.5 381t353.5 154q205 0 314.5 -137t109.5 -334q0 -56 -6 -86h-719q4 -161 99.5 -246.5t246.5 -85.5q165 0 289 51l33 -133q-146 -66 -346 -66q-231 0 -368.5 137.5t-137.5 364.5zM264 594h539q0 128 -66 206.5t-188 78.5q-116 0 -192 -78.5t-93 -206.5z M295 1114l197 297h129l200 -297h-143l-125 195l-119 -195h-139z" />
<glyph unicode="&#xeb;" horiz-adv-x="1062" d="M78 479q0 227 131.5 381t353.5 154q205 0 314.5 -137t109.5 -334q0 -56 -6 -86h-719q4 -161 99.5 -246.5t246.5 -85.5q165 0 289 51l33 -133q-146 -66 -346 -66q-231 0 -368.5 137.5t-137.5 364.5zM264 594h539q0 128 -66 206.5t-188 78.5q-116 0 -192 -78.5t-93 -206.5z M272 1245q0 45 30.5 76t76.5 31q42 0 71 -31t29 -76q0 -44 -29 -75t-73 -31q-45 0 -75 31t-30 75zM657 1245q0 45 30.5 76t74.5 31t73 -31t29 -76q0 -44 -29 -75t-73 -31q-46 0 -75.5 30.5t-29.5 75.5z" />
<glyph unicode="&#xec;" horiz-adv-x="495" d="M-7 1411h207l182 -297h-135zM154 0v991h190v-991h-190z" />
<glyph unicode="&#xed;" horiz-adv-x="495" d="M154 0v991h190v-991h-190zM157 1114l182 297h207l-254 -297h-135z" />
<glyph unicode="&#xee;" horiz-adv-x="495" d="M-11 1114l197 297h129l200 -297h-143l-125 195l-119 -195h-139zM154 0v991h190v-991h-190z" />
<glyph unicode="&#xef;" horiz-adv-x="495" d="M-46 1245q0 45 30.5 76t76.5 31q42 0 71 -31t29 -76q0 -44 -29 -75t-73 -31q-45 0 -75 31t-30 75zM154 0v991h190v-991h-190zM339 1245q0 45 30.5 76t74.5 31t73 -31t29 -76q0 -44 -29 -75t-73 -31q-46 0 -75.5 30.5t-29.5 75.5z" />
<glyph unicode="&#xf0;" horiz-adv-x="1150" d="M80 481q0 224 140 367t337 143q142 0 244 -86q-98 158 -250 266l-303 -137l-41 94l244 113q-95 65 -220 117l80 119q167 -70 305 -164l273 125l45 -92l-223 -103q360 -287 360 -723q0 -254 -142.5 -398.5t-357.5 -144.5q-214 0 -352.5 141t-138.5 363zM274 485 q0 -158 85 -262t210 -104q136 0 219.5 103.5t83.5 275.5q0 208 -89 286t-208 78q-139 0 -220 -111.5t-81 -265.5z" />
<glyph unicode="&#xf1;" horiz-adv-x="1175" d="M145 991h168l17 -168q47 86 138 138.5t200 52.5q156 0 259 -110t103 -322v-582h-190v561q0 140 -60.5 217.5t-175.5 77.5q-102 0 -181 -77t-79 -187v-592h-190v719q0 165 -9 272zM336 1151q0 97 35.5 153t99.5 56q46 0 134 -47q61 -35 94 -35q48 0 53 88h94 q0 -203 -139 -203q-50 0 -129 45q-61 35 -92 35q-46 0 -53 -92h-97z" />
<glyph unicode="&#xf2;" horiz-adv-x="1167" d="M78 487q0 241 146 384t368 143q221 0 359.5 -142t138.5 -366q0 -160 -67 -280t-186.5 -184.5t-258.5 -64.5q-217 0 -358.5 142t-141.5 368zM272 494q0 -163 87 -269t219 -106q134 0 223.5 106.5t89.5 274.5q0 155 -82.5 263.5t-224.5 108.5q-144 0 -228 -107.5 t-84 -270.5zM309 1411h207l182 -297h-135z" />
<glyph unicode="&#xf3;" horiz-adv-x="1167" d="M78 487q0 241 146 384t368 143q221 0 359.5 -142t138.5 -366q0 -160 -67 -280t-186.5 -184.5t-258.5 -64.5q-217 0 -358.5 142t-141.5 368zM272 494q0 -163 87 -269t219 -106q134 0 223.5 106.5t89.5 274.5q0 155 -82.5 263.5t-224.5 108.5q-144 0 -228 -107.5 t-84 -270.5zM473 1114l182 297h207l-254 -297h-135z" />
<glyph unicode="&#xf4;" horiz-adv-x="1167" d="M78 487q0 241 146 384t368 143q221 0 359.5 -142t138.5 -366q0 -160 -67 -280t-186.5 -184.5t-258.5 -64.5q-217 0 -358.5 142t-141.5 368zM272 494q0 -163 87 -269t219 -106q134 0 223.5 106.5t89.5 274.5q0 155 -82.5 263.5t-224.5 108.5q-144 0 -228 -107.5 t-84 -270.5zM321 1114l197 297h129l200 -297h-143l-125 195l-119 -195h-139z" />
<glyph unicode="&#xf5;" horiz-adv-x="1167" d="M78 487q0 241 146 384t368 143q221 0 359.5 -142t138.5 -366q0 -160 -67 -280t-186.5 -184.5t-258.5 -64.5q-217 0 -358.5 142t-141.5 368zM272 494q0 -163 87 -269t219 -106q134 0 223.5 106.5t89.5 274.5q0 155 -82.5 263.5t-224.5 108.5q-144 0 -228 -107.5 t-84 -270.5zM329 1151q0 97 35.5 153t99.5 56q46 0 134 -47q61 -35 94 -35q48 0 53 88h94q0 -203 -139 -203q-50 0 -129 45q-61 35 -92 35q-46 0 -53 -92h-97z" />
<glyph unicode="&#xf6;" horiz-adv-x="1167" d="M78 487q0 241 146 384t368 143q221 0 359.5 -142t138.5 -366q0 -160 -67 -280t-186.5 -184.5t-258.5 -64.5q-217 0 -358.5 142t-141.5 368zM272 494q0 -163 87 -269t219 -106q134 0 223.5 106.5t89.5 274.5q0 155 -82.5 263.5t-224.5 108.5q-144 0 -228 -107.5 t-84 -270.5zM286 1245q0 45 30.5 76t76.5 31q42 0 71 -31t29 -76q0 -44 -29 -75t-73 -31q-45 0 -75 31t-30 75zM671 1245q0 45 30.5 76t74.5 31t73 -31t29 -76q0 -44 -29 -75t-73 -31q-46 0 -75.5 30.5t-29.5 75.5z" />
<glyph unicode="&#xf7;" horiz-adv-x="1220" d="M80 483v129h1057v-129h-1057zM496 188q0 52 32 85.5t82 33.5t81.5 -33.5t31.5 -85.5t-32 -85t-83 -33q-49 0 -80.5 33.5t-31.5 84.5zM498 907q0 52 32 85.5t82 33.5t81.5 -33.5t31.5 -85.5t-31.5 -85.5t-83.5 -33.5q-49 0 -80.5 34t-31.5 85z" />
<glyph unicode="&#xf8;" horiz-adv-x="1167" d="M78 489q0 238 144.5 381.5t363.5 143.5q150 0 262 -70l90 125l84 -57l-90 -127q158 -151 158 -381q0 -243 -147 -385t-359 -142q-150 0 -262 70l-95 -129l-75 64l88 122q-162 147 -162 385zM266 494q0 -142 74 -246l422 567q-74 57 -178 57q-147 0 -232.5 -108.5 t-85.5 -269.5zM412 174q66 -55 168 -55q142 0 233.5 105.5t91.5 273.5q0 137 -74 239z" />
<glyph unicode="&#xf9;" horiz-adv-x="1169" d="M147 418v573h191v-540q0 -315 227 -316q104 0 182 75t78 181v600h191v-717q0 -169 8 -274h-168l-16 168q-115 -190 -340 -191q-163 0 -258 112t-95 329zM309 1411h207l182 -297h-135z" />
<glyph unicode="&#xfa;" horiz-adv-x="1169" d="M147 418v573h191v-540q0 -315 227 -316q104 0 182 75t78 181v600h191v-717q0 -169 8 -274h-168l-16 168q-115 -190 -340 -191q-163 0 -258 112t-95 329zM494 1114l182 297h207l-254 -297h-135z" />
<glyph unicode="&#xfb;" horiz-adv-x="1169" d="M147 418v573h191v-540q0 -315 227 -316q104 0 182 75t78 181v600h191v-717q0 -169 8 -274h-168l-16 168q-115 -190 -340 -191q-163 0 -258 112t-95 329zM321 1114l197 297h129l200 -297h-143l-125 195l-119 -195h-139z" />
<glyph unicode="&#xfc;" horiz-adv-x="1169" d="M147 418v573h191v-540q0 -315 227 -316q104 0 182 75t78 181v600h191v-717q0 -169 8 -274h-168l-16 168q-115 -190 -340 -191q-163 0 -258 112t-95 329zM293 1245q0 45 30.5 76t76.5 31q42 0 71 -31t29 -76q0 -44 -29 -75t-73 -31q-45 0 -75 31t-30 75zM678 1245 q0 45 30.5 76t74.5 31t73 -31t29 -76q0 -44 -29 -75t-73 -31q-46 0 -75.5 30.5t-29.5 75.5z" />
<glyph unicode="&#xfd;" horiz-adv-x="1001" d="M18 991h209l226 -591q29 -74 67 -189q40 138 62 200l202 580h205l-280 -708q-134 -338 -217.5 -467t-181.5 -191t-183 -78l-45 160q155 48 241.5 166t86.5 158q0 17 -13 47zM424 1114l182 297h207l-254 -297h-135z" />
<glyph unicode="&#xfe;" horiz-adv-x="1210" d="M154 -406v1778h190l4 -538q116 180 348 180q186 0 311.5 -141t125.5 -363q0 -161 -60.5 -281.5t-169.5 -186t-237 -65.5q-208 0 -322 158v-541h-190zM344 395q0 -46 30 -111.5t101 -111t160 -45.5q137 0 221 102.5t84 276.5q0 154 -83 255t-216 101q-134 0 -215.5 -92.5 t-81.5 -200.5v-174z" />
<glyph unicode="&#xff;" horiz-adv-x="1001" d="M18 991h209l226 -591q29 -74 67 -189q40 138 62 200l202 580h205l-280 -708q-134 -338 -217.5 -467t-181.5 -191t-183 -78l-45 160q155 48 241.5 166t86.5 158q0 17 -13 47zM229 1245q0 45 30.5 76t76.5 31q42 0 71 -31t29 -76q0 -44 -29 -75t-73 -31q-45 0 -75 31 t-30 75zM614 1245q0 45 30.5 76t74.5 31t73 -31t29 -76q0 -44 -29 -75t-73 -31q-46 0 -75.5 30.5t-29.5 75.5z" />
<glyph unicode="&#x152;" horiz-adv-x="1904" d="M76 678q0 331 193.5 528t508.5 197q57 0 191 -10q111 -12 139 -13h684v-157h-588v-426h555v-158h-555v-481h621v-158h-735q-52 0 -142 -10q-102 -12 -180 -13q-314 0 -503 196t-189 505zM276 686q0 -247 141 -401t390 -154q130 0 207 29v1059q-91 31 -228 30 q-232 0 -371 -155t-139 -408z" />
<glyph unicode="&#x153;" horiz-adv-x="1828" d="M78 489q0 232 139.5 378.5t353.5 146.5q132 0 235 -61.5t157 -174.5q57 115 154 175.5t218 60.5q203 0 310.5 -137t107.5 -332q0 -57 -6 -86h-694q0 -152 93 -243t243 -91q143 0 276 57l37 -135q-139 -70 -336 -70q-286 0 -408 234q-55 -114 -161.5 -174t-237.5 -60 q-209 0 -345 142.5t-136 369.5zM274 494q0 -162 86 -268.5t215 -106.5q132 0 215.5 103.5t83.5 273.5q0 164 -79.5 270t-219.5 106q-142 0 -221.5 -108.5t-79.5 -269.5zM1049 596h518q0 128 -64.5 205.5t-183.5 77.5q-112 0 -184.5 -79.5t-85.5 -203.5z" />
<glyph unicode="&#x178;" horiz-adv-x="1153" d="M27 1380h219q292 -557 340 -661q33 80 346 661h217l-479 -792v-588h-191v584zM285 1612q0 44 31 75t76 31q43 0 72.5 -31t29.5 -75t-29 -75.5t-73 -31.5q-45 0 -76 31.5t-31 75.5zM670 1612q0 44 30.5 75t74.5 31t74 -30.5t30 -75.5q0 -44 -29 -75.5t-73 -31.5 q-46 0 -76.5 31.5t-30.5 75.5z" />
<glyph unicode="&#x2c6;" horiz-adv-x="614" d="M45 1114l197 297h129l200 -297h-143l-125 195l-119 -195h-139z" />
<glyph unicode="&#x2dc;" horiz-adv-x="614" d="M53 1151q0 97 35.5 153t99.5 56q46 0 134 -47q61 -35 94 -35q48 0 53 88h94q0 -203 -139 -203q-50 0 -129 45q-61 35 -92 35q-46 0 -53 -92h-97z" />
<glyph unicode="&#x2000;" horiz-adv-x="864" />
<glyph unicode="&#x2001;" horiz-adv-x="1729" />
<glyph unicode="&#x2002;" horiz-adv-x="864" />
<glyph unicode="&#x2003;" horiz-adv-x="1729" />
<glyph unicode="&#x2004;" horiz-adv-x="576" />
<glyph unicode="&#x2005;" horiz-adv-x="432" />
<glyph unicode="&#x2006;" horiz-adv-x="288" />
<glyph unicode="&#x2007;" horiz-adv-x="288" />
<glyph unicode="&#x2008;" horiz-adv-x="216" />
<glyph unicode="&#x2009;" horiz-adv-x="345" />
<glyph unicode="&#x200a;" horiz-adv-x="96" />
<glyph unicode="&#x2010;" horiz-adv-x="636" d="M61 485v140h514v-140h-514z" />
<glyph unicode="&#x2011;" horiz-adv-x="636" d="M61 485v140h514v-140h-514z" />
<glyph unicode="&#x2012;" horiz-adv-x="636" d="M61 485v140h514v-140h-514z" />
<glyph unicode="&#x2013;" horiz-adv-x="1024" d="M61 455v127h902v-127h-902z" />
<glyph unicode="&#x2014;" horiz-adv-x="2048" d="M61 455v127h1926v-127h-1926z" />
<glyph unicode="&#x2018;" horiz-adv-x="438" d="M74 913q88 302 194 494l123 12q-83 -233 -123 -485z" />
<glyph unicode="&#x2019;" horiz-adv-x="438" d="M74 913q83 234 123 486l194 20q-88 -302 -194 -493z" />
<glyph unicode="&#x201a;" horiz-adv-x="438" d="M41 -238q83 233 123 486l194 20q-88 -302 -194 -493z" />
<glyph unicode="&#x201c;" horiz-adv-x="751" d="M72 913q90 308 196 494l121 12q-79 -223 -121 -485zM387 913q85 303 195 494l123 12q-83 -233 -123 -485z" />
<glyph unicode="&#x201d;" horiz-adv-x="751" d="M72 913q83 234 123 486l194 20q-82 -290 -194 -493zM387 913q79 224 121 486l197 20q-90 -308 -197 -493z" />
<glyph unicode="&#x201e;" horiz-adv-x="755" d="M41 -238q83 233 123 486l194 20q-81 -289 -194 -493zM356 -238q79 223 121 486l197 20q-91 -308 -197 -493z" />
<glyph unicode="&#x2022;" horiz-adv-x="591" d="M76 705q0 92 64.5 156.5t156.5 64.5t156.5 -64.5t64.5 -156.5q0 -91 -64.5 -155.5t-156.5 -64.5t-156.5 64t-64.5 156z" />
<glyph unicode="&#x2026;" horiz-adv-x="2048" d="M213 111q0 58 36.5 96.5t92.5 38.5t91.5 -37.5t35.5 -97.5q0 -57 -36.5 -95.5t-92.5 -38.5q-55 0 -91 38.5t-36 95.5zM893 111q0 58 36.5 96.5t92.5 38.5t91.5 -37.5t35.5 -97.5q0 -57 -36.5 -95.5t-92.5 -38.5q-55 0 -91 38.5t-36 95.5zM1573 111q0 58 36.5 96.5 t92.5 38.5t91.5 -37.5t35.5 -97.5q0 -57 -36.5 -95.5t-92.5 -38.5q-55 0 -91 38.5t-36 95.5z" />
<glyph unicode="&#x202f;" horiz-adv-x="345" />
<glyph unicode="&#x2039;" horiz-adv-x="536" d="M59 518l275 379h151l-276 -379l278 -381h-151z" />
<glyph unicode="&#x203a;" horiz-adv-x="536" d="M47 897h152l276 -379l-276 -381h-150l277 381z" />
<glyph unicode="&#x205f;" horiz-adv-x="432" />
<glyph unicode="&#x20ac;" d="M18 508v106h119v29q0 24 1 46.5t3 43.5h-123v107h140q18 103 61 188.5t107 149.5q82 83 186 129.5t236 46.5q97 0 169.5 -21t118.5 -45l-43 -143q-42 24 -104.5 40.5t-134.5 16.5q-174 0 -283 -115q-45 -43 -74.5 -107.5t-44.5 -139.5h592v-107h-612q-3 -20 -3.5 -41 t-0.5 -43v-35h616v-106h-600q12 -83 41 -147t72 -109q57 -60 133.5 -89.5t163.5 -29.5q42 0 80.5 6.5t72.5 17.5t61 23.5t46 22.5l37 -137q-51 -34 -131.5 -61.5t-186.5 -27.5q-134 0 -246.5 49t-191.5 142q-117 129 -148 340h-129z" />
<glyph unicode="&#x2122;" horiz-adv-x="1685" d="M29 1270v110h641v-110h-256v-705h-131v705h-254zM700 565l62 815h174l156 -428l65 -213q44 174 57 209l160 432h168l62 -815h-129q-34 493 -35 552l-8 159q-40 -152 -76 -251l-164 -447h-100l-167 476l-65 222l-5 -179l-32 -532h-123z" />
<glyph unicode="&#xe000;" horiz-adv-x="993" d="M0 0v993h993v-993h-993z" />
<glyph unicode="&#xfb01;" horiz-adv-x="1105" d="M31 846v145h139v53q0 204 118.5 320.5t327.5 116.5q70 0 145.5 -19t117.5 -49l-54 -145q-91 59 -217 59q-250 0 -250 -289v-47h594v-991h-190v846h-402v-846h-190v846h-139z" />
<glyph unicode="&#xfb02;" horiz-adv-x="1105" d="M31 846v145h139v41q0 199 119.5 324t353.5 125q175 0 309 -68v-1413h-190v1307q-50 27 -150 26q-124 0 -189 -77t-65 -218v-47h236v-145h-234v-846h-190v846h-139z" />
</font>
</defs></svg> 